{
    "page": 1,
    "total_results": 7504,
    "total_pages": 376,
    "results": [
        {
            "vote_count": 888,
            "id": 19404,
            "video": false,
            "vote_average": 9.1,
            "title": "Dilwale Dulhania Le Jayenge",
            "popularity": 40.85015,
            "poster_path": "\/uC6TTUhPpQCmgldGyYveKRAu8JN.jpg",
            "original_language": "hi",
            "original_title": "Dilwale Dulhania Le Jayenge",
            "genre_ids": [
                35,
                18,
                10749
            ],
            "backdrop_path": "\/nl79FQ8xWZkhL3rDr1v2RFFR6J0.jpg",
            "adult": false,
            "overview": "Raj is a rich, carefree, happy-go-lucky second generation NRI. Simran is the daughter of Chaudhary Baldev Singh, who in spite of being an NRI is very strict about adherence to Indian values. Simran has left for India to be married to her childhood fiancé. Raj leaves for India with a mission at his hands, to claim his lady love under the noses of her whole family. Thus begins a saga.",
            "release_date": "1995-10-20"
        },
        {
            "vote_count": 8941,
            "id": 278,
            "video": false,
            "vote_average": 8.5,
            "title": "The Shawshank Redemption",
            "popularity": 49.471602,
            "poster_path": "\/9O7gLzmreU0nGkIB6K3BsJbzvNv.jpg",
            "original_language": "en",
            "original_title": "The Shawshank Redemption",
            "genre_ids": [
                18,
                80
            ],
            "backdrop_path": "\/xBKGJQsAIeweesB79KC89FpBrVr.jpg",
            "adult": false,
            "overview": "Framed in the 1940s for the double murder of his wife and her lover, upstanding banker Andy Dufresne begins a new life at the Shawshank prison, where he puts his accounting skills to work for an amoral warden. During his long stretch in prison, Dufresne comes to be admired by the other inmates -- including an older prisoner named Red -- for his integrity and unquenchable sense of hope.",
            "release_date": "1994-09-23"
        },
        {
            "vote_count": 1455,
            "id": 372058,
            "video": false,
            "vote_average": 8.5,
            "title": "Your Name.",
            "popularity": 46.417712,
            "poster_path": "\/xq1Ugd62d23K2knRUx6xxuALTZB.jpg",
            "original_language": "ja",
            "original_title": "君の名は。",
            "genre_ids": [
                10749,
                16,
                18
            ],
            "backdrop_path": "\/6vkhRvsRvWpmaRVyCXaxTkIEb7j.jpg",
            "adult": false,
            "overview": "High schoolers Mitsuha and Taki are complete strangers living separate lives. But one night, they suddenly switch places. Mitsuha wakes up in Taki’s body, and he in hers. This bizarre occurrence continues to happen randomly, and the two must adjust their lives around each other.",
            "release_date": "2016-08-26"
        },
        {
            "vote_count": 6556,
            "id": 238,
            "video": false,
            "vote_average": 8.5,
            "title": "The Godfather",
            "popularity": 70.641342,
            "poster_path": "\/rPdtLWNsZmAtoZl9PK7S2wE3qiS.jpg",
            "original_language": "en",
            "original_title": "The Godfather",
            "genre_ids": [
                18,
                80
            ],
            "backdrop_path": "\/6xKCYgH16UuwEGAyroLU6p8HLIn.jpg",
            "adult": false,
            "overview": "Spanning the years 1945 to 1955, a chronicle of the fictional Italian-American Corleone crime family. When organized crime family patriarch, Vito Corleone barely survives an attempt on his life, his youngest son, Michael steps in to take care of the would-be killers, launching a campaign of bloody revenge.",
            "release_date": "1972-03-14"
        },
        {
            "vote_count": 4816,
            "id": 424,
            "video": false,
            "vote_average": 8.4,
            "title": "Schindler's List",
            "popularity": 41.014617,
            "poster_path": "\/yPisjyLweCl1tbgwgtzBCNCBle.jpg",
            "original_language": "en",
            "original_title": "Schindler's List",
            "genre_ids": [
                18,
                36,
                10752
            ],
            "backdrop_path": "\/rIpSszng8P0DL0TimSzZbpfnvh1.jpg",
            "adult": false,
            "overview": "The true story of how businessman Oskar Schindler saved over a thousand Jewish lives from the Nazis while they worked as slaves in his factory during World War II.",
            "release_date": "1993-11-29"
        },
        {
            "vote_count": 4329,
            "id": 129,
            "video": false,
            "vote_average": 8.3,
            "title": "Spirited Away",
            "popularity": 56.004247,
            "poster_path": "\/dL11DBPcRhWWnJcFXl9A07MrqTI.jpg",
            "original_language": "ja",
            "original_title": "千と千尋の神隠し",
            "genre_ids": [
                16,
                10751,
                14
            ],
            "backdrop_path": "\/mnpRKVSXBX6jb56nabvmGKA0Wig.jpg",
            "adult": false,
            "overview": "A young girl, Chihiro, becomes trapped in a strange new world of spirits. When her parents undergo a mysterious transformation, she must call upon the courage she never knew she had to free her family.",
            "release_date": "2001-07-20"
        },
        {
            "vote_count": 3760,
            "id": 240,
            "video": false,
            "vote_average": 8.3,
            "title": "The Godfather: Part II",
            "popularity": 57.603428,
            "poster_path": "\/tHbMIIF51rguMNSastqoQwR0sBs.jpg",
            "original_language": "en",
            "original_title": "The Godfather: Part II",
            "genre_ids": [
                18,
                80
            ],
            "backdrop_path": "\/gLbBRyS7MBrmVUNce91Hmx9vzqI.jpg",
            "adult": false,
            "overview": "In the continuing saga of the Corleone crime family, a young Vito Corleone grows up in Sicily and in 1910s New York. In the 1950s, Michael Corleone attempts to expand the family business into Las Vegas, Hollywood and Cuba.",
            "release_date": "1974-12-20"
        },
        {
            "vote_count": 152,
            "id": 339877,
            "video": false,
            "vote_average": 8.3,
            "title": "Loving Vincent",
            "popularity": 36.33867,
            "poster_path": "\/qlrhwUDe7YOZujAYanK6ij2vbY5.jpg",
            "original_language": "en",
            "original_title": "Loving Vincent",
            "genre_ids": [
                16,
                18
            ],
            "backdrop_path": "\/adFgBkl35kdI0bSrWZO2xury1JB.jpg",
            "adult": false,
            "overview": "The film brings the paintings of Vincent van Gogh to life to tell his remarkable story. Every one of the 65,000 frames of the film is an oil-painting hand-painted by 125 professional oil-painters who travelled from all across the world to the Loving Vincent studios in Poland and Greece to be a part of the production. As remarkable as Vincent’s brilliant paintings are his passionate and ill-fated life and mysterious death.",
            "release_date": "2017-09-22"
        },
        {
            "vote_count": 85,
            "id": 38288,
            "video": false,
            "vote_average": 8.3,
            "title": "I Corti",
            "popularity": 22.383631,
            "poster_path": "\/82KeyiTv5lyfz4K2KzokXJrn7kR.jpg",
            "original_language": "it",
            "original_title": "I Corti",
            "genre_ids": [],
            "backdrop_path": "\/y1YrEQazmKcEKgMi4w0JqxxssGX.jpg",
            "adult": false,
            "overview": "The shorts of Aldo , Giovanni &amp; Giacomo was the first theatrical show of the trio of comedians Aldo , Giovanni &amp; Giacomo , with the participation of Marina Massironi .  The show is the son of the fortunate trio 's holdings in television as Mai dire Gol, and shows such as The Circus by Paolo Rossi and on the head !  The short was recorded live at the Teatro Nuovo in Ferrara on 28 and 29 March 1996. Produced by Agidi , the theater director is entrusted to the change artist Arturo Brachetti .",
            "release_date": "1996-01-01"
        },
        {
            "vote_count": 4709,
            "id": 244786,
            "video": false,
            "vote_average": 8.3,
            "title": "Whiplash",
            "popularity": 49.62443,
            "poster_path": "\/lIv1QinFqz4dlp5U4lQ6HaiskOZ.jpg",
            "original_language": "en",
            "original_title": "Whiplash",
            "genre_ids": [
                18
            ],
            "backdrop_path": "\/6bbZ6XyvgfjhQwbplnUh1LSj1ky.jpg",
            "adult": false,
            "overview": "Under the direction of a ruthless instructor, a talented young drummer begins to pursue perfection at any cost, even his humanity.",
            "release_date": "2014-10-10"
        },
        {
            "vote_count": 10567,
            "id": 550,
            "video": false,
            "vote_average": 8.3,
            "title": "Fight Club",
            "popularity": 64.239149,
            "poster_path": "\/adw6Lq9FiC9zjYEpOqfq03ituwp.jpg",
            "original_language": "en",
            "original_title": "Fight Club",
            "genre_ids": [
                18
            ],
            "backdrop_path": "\/8uO0gUM8aNqYLs1OsTBQiXu0fEv.jpg",
            "adult": false,
            "overview": "A ticking-time-bomb insomniac and a slippery soap salesman channel primal male aggression into a shocking new form of therapy. Their concept catches on, with underground \"fight clubs\" forming in every town, until an eccentric gets in the way and ignites an out-of-control spiral toward oblivion.",
            "release_date": "1999-10-15"
        },
        {
            "vote_count": 141,
            "id": 40096,
            "video": false,
            "vote_average": 8.3,
            "title": "A Dog's Will",
            "popularity": 20.190206,
            "poster_path": "\/uHEmM49YphluJnGep8Ef1qwD2QX.jpg",
            "original_language": "pt",
            "original_title": "O Auto da Compadecida",
            "genre_ids": [
                12,
                35,
                18
            ],
            "backdrop_path": "\/alQqTpmEkxSLgajfEYTsTH6nAKB.jpg",
            "adult": false,
            "overview": "The lively João Grilo and the sly Chicó are poor guys living in the hinterland who cheat a bunch of people in a small Northeast Brazil town. But when they die, they have to be judged by Christ, the Devil and the Virgin Mary, before they are admitted to paradise.",
            "release_date": "2000-09-10"
        },
        {
            "vote_count": 329,
            "id": 374430,
            "video": false,
            "vote_average": 8.3,
            "title": "Black Mirror: White Christmas",
            "popularity": 23.556373,
            "poster_path": "\/he609rnU3tiwBjRklKNa4n2jQSd.jpg",
            "original_language": "en",
            "original_title": "Black Mirror: White Christmas",
            "genre_ids": [
                18,
                9648,
                878,
                53,
                10770
            ],
            "backdrop_path": "\/rMCew7St2vy9iV3QOPzx15sAkFJ.jpg",
            "adult": false,
            "overview": "In a mysterious and remote snowy outpost, Matt and Potter share a Christmas meal, swapping creepy tales of their earlier lives in the outside world, but are both men who they appear to be?",
            "release_date": "2014-12-16"
        },
        {
            "vote_count": 9382,
            "id": 680,
            "video": false,
            "vote_average": 8.3,
            "title": "Pulp Fiction",
            "popularity": 58.893922,
            "poster_path": "\/dM2w364MScsjFf8pfMbaWUcWrR.jpg",
            "original_language": "en",
            "original_title": "Pulp Fiction",
            "genre_ids": [
                53,
                80
            ],
            "backdrop_path": "\/9rZg1J6vMQoDVSgRyWcpJa8IAGy.jpg",
            "adult": false,
            "overview": "A burger-loving hit man, his philosophical partner, a drug-addled gangster's moll and a washed-up boxer converge in this sprawling, comedic crime caper. Their adventures unfurl in three stories that ingeniously trip back and forth in time.",
            "release_date": "1994-09-10"
        },
        {
            "vote_count": 4116,
            "id": 637,
            "video": false,
            "vote_average": 8.3,
            "title": "Life Is Beautiful",
            "popularity": 40.872734,
            "poster_path": "\/f7DImXDebOs148U4uPjI61iDvaK.jpg",
            "original_language": "it",
            "original_title": "La vita è bella",
            "genre_ids": [
                35,
                18
            ],
            "backdrop_path": "\/bORe0eI72D874TMawOOFvqWS6Xe.jpg",
            "adult": false,
            "overview": "A touching story of an Italian book seller of Jewish ancestry who lives in his own little fairy tale. His creative and happy life would come to an abrupt halt when his entire family is deported to a concentration camp during World War II. While locked up he tries to convince his son that the whole thing is just a game.",
            "release_date": "1997-12-20"
        },
        {
            "vote_count": 3343,
            "id": 510,
            "video": false,
            "vote_average": 8.3,
            "title": "One Flew Over the Cuckoo's Nest",
            "popularity": 41.067969,
            "poster_path": "\/2Sns5oMb356JNdBHgBETjIpRYy9.jpg",
            "original_language": "en",
            "original_title": "One Flew Over the Cuckoo's Nest",
            "genre_ids": [
                18
            ],
            "backdrop_path": "\/4E7YQcwui0PfNXguf4V2X8YocPC.jpg",
            "adult": false,
            "overview": "While serving time for insanity at a state mental hospital, implacable rabble-rouser, Randle Patrick McMurphy inspires his fellow patients to rebel against the authoritarian rule of head nurse, Mildred Ratched.",
            "release_date": "1975-11-18"
        },
        {
            "vote_count": 2607,
            "id": 539,
            "video": false,
            "vote_average": 8.3,
            "title": "Psycho",
            "popularity": 33.319053,
            "poster_path": "\/81d8oyEFgj7FlxJqSDXWr8JH8kV.jpg",
            "original_language": "en",
            "original_title": "Psycho",
            "genre_ids": [
                18,
                27,
                53
            ],
            "backdrop_path": "\/3md49VBCeqY6MSNyAVY6d5eC6bA.jpg",
            "adult": false,
            "overview": "When larcenous real estate clerk Marion Crane goes on the lam with a wad of cash and hopes of starting a new life, she ends up at the notorious Bates Motel, where manager Norman Bates cares for his housebound mother. The place seems quirky, but fine… until Marion decides to take a shower.",
            "release_date": "1960-06-16"
        },
        {
            "vote_count": 13167,
            "id": 155,
            "video": false,
            "vote_average": 8.3,
            "title": "The Dark Knight",
            "popularity": 37.721945,
            "poster_path": "\/1hRoyzDtpgMU7Dz4JF22RANzQO7.jpg",
            "original_language": "en",
            "original_title": "The Dark Knight",
            "genre_ids": [
                18,
                28,
                80,
                53
            ],
            "backdrop_path": "\/hqkIcbrOHL86UncnHIsHVcVmzue.jpg",
            "adult": false,
            "overview": "Batman raises the stakes in his war on crime. With the help of Lt. Jim Gordon and District Attorney Harvey Dent, Batman sets out to dismantle the remaining criminal organizations that plague the streets. The partnership proves to be effective, but they soon find themselves prey to a reign of chaos unleashed by a rising criminal mastermind known to the terrified citizens of Gotham as the Joker.",
            "release_date": "2008-07-16"
        },
        {
            "vote_count": 8931,
            "id": 13,
            "video": false,
            "vote_average": 8.3,
            "title": "Forrest Gump",
            "popularity": 29.621621,
            "poster_path": "\/yE5d3BUhE8hCnkMUJOo1QDoOGNz.jpg",
            "original_language": "en",
            "original_title": "Forrest Gump",
            "genre_ids": [
                35,
                18,
                10749
            ],
            "backdrop_path": "\/ctOEhQiFIHWkiaYp7b0ibSTe5IL.jpg",
            "adult": false,
            "overview": "A man with a low IQ has accomplished great things in his life and been present during significant historic events - in each case, far exceeding what anyone imagined he could do. Yet, despite all the things he has attained, his one true love eludes him. 'Forrest Gump' is the story of a man who rose above his challenges, and who proved that determination, courage, and love are more important than ability.",
            "release_date": "1994-07-06"
        },
        {
            "vote_count": 1275,
            "id": 311,
            "video": false,
            "vote_average": 8.3,
            "title": "Once Upon a Time in America",
            "popularity": 29.940815,
            "poster_path": "\/fqP3Q7DWMFqW7mh11hWXbNwN9rz.jpg",
            "original_language": "en",
            "original_title": "Once Upon a Time in America",
            "genre_ids": [
                18,
                80
            ],
            "backdrop_path": "\/vnT6HzjLSDrAweHn9xWykb8Ii6T.jpg",
            "adult": false,
            "overview": "A former Prohibition-era Jewish gangster returns to the Lower East Side of Manhattan over thirty years later, where he once again must confront the ghosts and regrets of his old life.",
            "release_date": "1984-02-16"
        }
    ]
}